product_category,product_name,brand,product_image,product_price,description,features,benefits,tds,sds,uom,pack_size,quantity,online_consumption,offline_consumption,suggested_for,moq,created_on
2,nax Premila 9800 HS Clear 2K Premium Hi-Solid 2:1,3,no-image.png,1000,"Premium two component hi-solid, hi performance acrylic urethane clear. Provides deep gloss/brilliance and protection over different types of basecoats with excellent chemical resistance and UV protection.","Can be applied in 1&1/2 coat
Good Sag Sensitivity
Deep Gloss and high DOI","Increased Productivity
Reduced Re-do Work
Outstanding Finish",no-image.png,no-image.png,Litres,Nax 9800 HS Clear 4L/1L Nax 980 Hardener 1L/0.5L,125,10,2,,1,7/9/2018
