product_category,product_name,brand,product_image,product_price,description,features,benefits,tds,sds,uom,pack_size,quantity,online_consumption,offline_consumption,suggested_for,moq,created_on
5,upload csv,4,no-image.png,1000,cge,ss,test,no-image.png,no-image.png,Litres,1,125,10,2,,1,09-07-2018
4,csv2,4,no-image.png,1500,12,45,test,no-image.png,no-image.png,Litres,1,125,20,2,,2,07-10-2018
4,csv2,4,no-image.png,1500,12,45,test,no-image.png,no-image.png,Litres,1,125,20,2,,2,07-10-2018
4,csv2,4,no-image.png,1500,12,45,test,no-image.png,no-image.png,Litres,1,125,20,2,,2,07-10-2018
4,csv2,4,no-image.png,1500,12,45,test,no-image.png,no-image.png,Litres,1,125,20,2,,2,07-10-2018
4,csv2,4,no-image.png,1500,12,45,test,no-image.png,no-image.png,Litres,1,125,20,2,,2,07-10-2018
