name,address,designation,email,phone,state,city,created_date
Catalyst1,test,Catalyst,1@gmail.com,7894561325,cge,ss,2018-05-27
Test Catalyst 2,testtttttt,Catalyst,2@gmail.com,7447744775,ddd,hh,2018-05-27
