store_name,dealer_name,email,mobile,state,flat_no,city,state,colony,pincode,created_on
Catalyst1,test,1@gmail.com,7894561325,cge,ss,27-05-2018,1,17.235,78.587,2018-05-27
Test Catalyst 2,testtttttt,2@gmail.com,7447744775,ddd,hh,27-05-2018,1,17.258,78.745,2018-05-27
